…
    victim_race = str_to_lower(victim_race),
        victim_age = as.numeric(victim_age)
  ) |>
  filter(
    !city_state %in% c("Dallas, TX",
                       "Phoenix, AZ",
                       "Kansas City, MO",
                       "Tulsa, AL")
  ) |>
  filter(victim_race %in% c("white", "black"))

homicide_df
```

    ## # A tibble: 39,693 × 14
    ##    uid        reported_date victim_last  victim_first victim_race victim_age
    ##    <chr>              <dbl> <chr>        <chr>        <chr>            <dbl>
    ##  1 Alb-000003      20100601 SATTERFIELD  VIVIANA      white               15
    ##  2 Alb-000005      20100102 MULA         VIVIAN       white               72
    ##  3 Alb-000006      20100126 BOOK         GERALDINE    white               91
    ##  4 Alb-000009      20100130 MARTIN-LEYVA GUSTAVO      white               56
    ##  5 Alb-000012      20100218 LUJAN        KEVIN        white               NA
    ##  6 Alb-000016      20100308 GRAY         STEFANIA     white               43
    ##  7 Alb-000018      20100323 DAVID        LARRY        white               52
    ##  8 Alb-000019      20100402 BRITO        ELIZABETH    white               22
    ##  9 Alb-000021      20100423 KING         TEVION       black               15
    ## 10 Alb-000022      20100423 BOYKIN       CEDRIC       black               25
    ## # ℹ 39,683 more rows
    ## # ℹ 8 more variables: victim_sex <chr>, city <chr>, state <chr>, lat <dbl>,
    ## #   lon <dbl>, disposition <chr>, city_state <chr>, resolved <fct>
